Months,January,February,March,April,May,June,July,August,September,October,November,December
1,13,2,5,87,3,6,8,6,43,4,3,7
2,2,4,5,76,89,65,3,32,2,2,5,9
3,2,4,5,76,89,65,3,3,2,2,5,9
4,2,4,5,76,89,65,3,32,2,2,5,9
5,2,4,5,76,89,65,3,32,2,2,5,9
6,2,4,5,76,89,65,3,32,2,2,5,9
7,2,4,5,0,0,3,32,2,2,5,9
8,2,0,5,76,89, 165,3,32,2,2,5,9
9,2,4,5,76,89,65,1,32,2,2,5,9
10,0,2,3,5,76,89,65,3,32,2,2,5,9
11,2,4,5,76,89,65,3,32,2,2,5,9
12,2,4,5,76,89,65,3,32,2,2,5,9
13,2,4,5,0,0,6,3,3,2,2,5,9
14,2,4,5,76,89,65,36,32,2,2,5,9
15,2,6,5,76,89,65,3,32,2,2,5,9
16,2,4,5,76,89,65,3,32,2,2,5,9
17,2,8,5,76,89,65,3,32,2,2,5,9
18,2,4,5,76,89,65,3,32,2,2,5,9
19,2,4,9,76,89,65,3,32,2,2,5,9
20,2,4,5,76,89,65,3,32,2,2,5,9
21,2,15,5,76,89,65,3,32,2,2,5,9
22,2,4,5,76,89,65,3,32,2,2,5,9
23,2,4,5,76,89,65,3,32,2,2,5,9
24,2,4,5,76,89,65,3,3,2,2,5,9
25,2,4,5,76,89,65,3,32,2,2,5,9
26,2,4,5,76,89,65,3,32,2,2,5,9
27,21,4,5,76,89,65,3,32,2,2,5,9
28,2,4,5,76,89,65,3,32,2,2,5,9
29,2,4,5,76,89,65,3,32,2,2,5,9
30,2,4,5,76,89,65,3,32,2,2,5,9
31,2,4,5,76,89,65,3,32,2,2,5,9